traces/simonsays.vcd
$version Generated by VerilatedVcd $end
$date Mon Nov 28 10:22:07 2022 $end
$timescale 1s $end

 $scope module TOP $end
  $var wire  1 b blue $end
  $var wire  1 a green $end
  $var wire  1 S hz100 $end
  $var wire  8 V left [7:0] $end
  $var wire 20 U pb [19:0] $end
  $var wire  1 ` red $end
  $var wire  1 T reset $end
  $var wire  8 W right [7:0] $end
  $var wire  8 _ ss0 [7:0] $end
  $var wire  8 ^ ss1 [7:0] $end
  $var wire  8 ] ss2 [7:0] $end
  $var wire  8 \ ss3 [7:0] $end
  $var wire  8 [ ss4 [7:0] $end
  $var wire  8 Z ss5 [7:0] $end
  $var wire  8 Y ss6 [7:0] $end
  $var wire  8 X ss7 [7:0] $end
  $scope module simonsays $end
   $var wire  8 i CLKDIV_LIM [7:0] $end
   $var wire  1 b blue $end
   $var wire  1 , fr_en $end
   $var wire  8 & fr_out [7:0] $end
   $var wire  1 a green $end
   $var wire  1 S hz100 $end
   $var wire  1 # hz_sd $end
   $var wire  1 . is_correct $end
   $var wire  1 - is_wrong $end
   $var wire  8 V left [7:0] $end
   $var wire 40 ) lettering [39:0] $end
   $var wire  1 ' mem_en $end
   $var wire 12 d mem_out [11:0] $end
   $var wire 20 U pb [19:0] $end
   $var wire  1 ` red $end
   $var wire  1 T reset $end
   $var wire  8 W right [7:0] $end
   $var wire  1 g round_passed $end
   $var wire  4 / score [3:0] $end
   $var wire  1 f sd_is_empty $end
   $var wire 16 c sd_out [15:0] $end
   $var wire  1 + sd_srst $end
   $var wire  1 e simon_says $end
   $var wire  3 j simonsays_fsm [2:0] $end
   $var wire  8 _ ss0 [7:0] $end
   $var wire  8 ^ ss1 [7:0] $end
   $var wire  8 ] ss2 [7:0] $end
   $var wire  8 \ ss3 [7:0] $end
   $var wire  8 [ ss4 [7:0] $end
   $var wire  8 Z ss5 [7:0] $end
   $var wire  8 Y ss6 [7:0] $end
   $var wire  8 X ss7 [7:0] $end
   $var wire  3 0 state [2:0] $end
   $var wire  1 ( strobe $end
   $scope module cld1 $end
    $var wire  1 % c $end
    $var wire  1 S clk $end
    $var wire  8 $ ctr [7:0] $end
    $var wire  1 # hzX $end
    $var wire  8 i lim [7:0] $end
    $var wire  1 T rst $end
   $upscope $end
   $scope module ctrl $end
    $var wire  1 S clk $end
    $var wire  1 , fr_en $end
    $var wire  1 . is_correct $end
    $var wire  1 - is_wrong $end
    $var wire  1 ' mem_en $end
    $var wire  1 g round_passed $end
    $var wire  1 T rst $end
    $var wire  4 / score [3:0] $end
    $var wire  1 f sd_is_empty $end
    $var wire  1 + sd_srst $end
    $var wire  1 e simon_says $end
    $var wire  3 0 simonsays_fsm [2:0] $end
    $var wire  1 ( sk_strobe $end
    $var wire  3 0 state [2:0] $end
   $upscope $end
   $scope module fr $end
    $var wire  8 l Q [7:0] $end
    $var wire  1 S clk $end
    $var wire  1 , en $end
    $var wire  8 k max [7:0] $end
    $var wire  8 1 next_Q [7:0] $end
    $var wire  8 & out [7:0] $end
    $var wire  1 T rst $end
   $upscope $end
   $scope module m $end
    $var wire 12 d btns [11:0] $end
    $var wire  1 S clk $end
    $var wire  1 ' en $end
    $var wire  8 & sel [7:0] $end
   $upscope $end
   $scope module sd $end
    $var wire  1 # clk $end
    $var wire 16 c out [15:0] $end
    $var wire  1 T rst $end
    $var wire  1 + srst $end
   $upscope $end
   $scope module sde0 $end
    $var wire  1 m enable $end
    $var wire  5 2 in [4:0] $end
    $var wire  7 3 out [6:0] $end
    $var wire  7 4 ssX [6:0] $end
    $scope module s0 $end
     $var wire 16 n SEGA [15:0] $end
     $var wire 16 o SEGB [15:0] $end
     $var wire 16 p SEGC [15:0] $end
     $var wire 16 q SEGD [15:0] $end
     $var wire 16 r SEGE [15:0] $end
     $var wire 16 s SEGF [15:0] $end
     $var wire 16 t SEGG [15:0] $end
     $var wire  1 m enable $end
     $var wire  4 5 in [3:0] $end
     $var wire  7 4 out [6:0] $end
    $upscope $end
   $upscope $end
   $scope module sde1 $end
    $var wire  1 m enable $end
    $var wire  5 6 in [4:0] $end
    $var wire  7 7 out [6:0] $end
    $var wire  7 8 ssX [6:0] $end
    $scope module s0 $end
     $var wire 16 n SEGA [15:0] $end
     $var wire 16 o SEGB [15:0] $end
     $var wire 16 p SEGC [15:0] $end
     $var wire 16 q SEGD [15:0] $end
     $var wire 16 r SEGE [15:0] $end
     $var wire 16 s SEGF [15:0] $end
     $var wire 16 t SEGG [15:0] $end
     $var wire  1 m enable $end
     $var wire  4 9 in [3:0] $end
     $var wire  7 8 out [6:0] $end
    $upscope $end
   $upscope $end
   $scope module sde2 $end
    $var wire  1 m enable $end
    $var wire  5 : in [4:0] $end
    $var wire  7 ; out [6:0] $end
    $var wire  7 < ssX [6:0] $end
    $scope module s0 $end
     $var wire 16 n SEGA [15:0] $end
     $var wire 16 o SEGB [15:0] $end
     $var wire 16 p SEGC [15:0] $end
     $var wire 16 q SEGD [15:0] $end
     $var wire 16 r SEGE [15:0] $end
     $var wire 16 s SEGF [15:0] $end
     $var wire 16 t SEGG [15:0] $end
     $var wire  1 m enable $end
     $var wire  4 = in [3:0] $end
     $var wire  7 < out [6:0] $end
    $upscope $end
   $upscope $end
   $scope module sde3 $end
    $var wire  1 m enable $end
    $var wire  5 > in [4:0] $end
    $var wire  7 ? out [6:0] $end
    $var wire  7 @ ssX [6:0] $end
    $scope module s0 $end
     $var wire 16 n SEGA [15:0] $end
     $var wire 16 o SEGB [15:0] $end
     $var wire 16 p SEGC [15:0] $end
     $var wire 16 q SEGD [15:0] $end
     $var wire 16 r SEGE [15:0] $end
     $var wire 16 s SEGF [15:0] $end
     $var wire 16 t SEGG [15:0] $end
     $var wire  1 m enable $end
     $var wire  4 A in [3:0] $end
     $var wire  7 @ out [6:0] $end
    $upscope $end
   $upscope $end
   $scope module sde4 $end
    $var wire  1 m enable $end
    $var wire  5 B in [4:0] $end
    $var wire  7 C out [6:0] $end
    $var wire  7 D ssX [6:0] $end
    $scope module s0 $end
     $var wire 16 n SEGA [15:0] $end
     $var wire 16 o SEGB [15:0] $end
     $var wire 16 p SEGC [15:0] $end
     $var wire 16 q SEGD [15:0] $end
     $var wire 16 r SEGE [15:0] $end
     $var wire 16 s SEGF [15:0] $end
     $var wire 16 t SEGG [15:0] $end
     $var wire  1 m enable $end
     $var wire  4 E in [3:0] $end
     $var wire  7 D out [6:0] $end
    $upscope $end
   $upscope $end
   $scope module sde5 $end
    $var wire  1 m enable $end
    $var wire  5 F in [4:0] $end
    $var wire  7 G out [6:0] $end
    $var wire  7 H ssX [6:0] $end
    $scope module s0 $end
     $var wire 16 n SEGA [15:0] $end
     $var wire 16 o SEGB [15:0] $end
     $var wire 16 p SEGC [15:0] $end
     $var wire 16 q SEGD [15:0] $end
     $var wire 16 r SEGE [15:0] $end
     $var wire 16 s SEGF [15:0] $end
     $var wire 16 t SEGG [15:0] $end
     $var wire  1 m enable $end
     $var wire  4 I in [3:0] $end
     $var wire  7 H out [6:0] $end
    $upscope $end
   $upscope $end
   $scope module sde6 $end
    $var wire  1 m enable $end
    $var wire  5 J in [4:0] $end
    $var wire  7 K out [6:0] $end
    $var wire  7 L ssX [6:0] $end
    $scope module s0 $end
     $var wire 16 n SEGA [15:0] $end
     $var wire 16 o SEGB [15:0] $end
     $var wire 16 p SEGC [15:0] $end
     $var wire 16 q SEGD [15:0] $end
     $var wire 16 r SEGE [15:0] $end
     $var wire 16 s SEGF [15:0] $end
     $var wire 16 t SEGG [15:0] $end
     $var wire  1 m enable $end
     $var wire  4 M in [3:0] $end
     $var wire  7 L out [6:0] $end
    $upscope $end
   $upscope $end
   $scope module sde7 $end
    $var wire  1 m enable $end
    $var wire  5 N in [4:0] $end
    $var wire  7 O out [6:0] $end
    $var wire  7 P ssX [6:0] $end
    $scope module s0 $end
     $var wire 16 n SEGA [15:0] $end
     $var wire 16 o SEGB [15:0] $end
     $var wire 16 p SEGC [15:0] $end
     $var wire 16 q SEGD [15:0] $end
     $var wire 16 r SEGE [15:0] $end
     $var wire 16 s SEGF [15:0] $end
     $var wire 16 t SEGG [15:0] $end
     $var wire  1 m enable $end
     $var wire  4 Q in [3:0] $end
     $var wire  7 P out [6:0] $end
    $upscope $end
   $upscope $end
   $scope module sk $end
    $var wire  1 S clk $end
    $var wire  2 R ff [1:0] $end
    $var wire 20 U in [19:0] $end
    $var wire  5 h out [4:0] $end
    $var wire  1 T rst $end
    $var wire  1 ( strobe $end
   $upscope $end
  $upscope $end
 $upscope $end
$enddefinitions $end


#1
0#
b01100011 $
0%
b11111101 &
1'
1(
b1111111111111111111111111111111111111111 )
0+
1,
0-
0.
b0001 /
b101 0
b11111110 1
b11111 2
b0000000 3
b1110001 4
b1111 5
b11111 6
b0000000 7
b1110001 8
b1111 9
b11111 :
b0000000 ;
b1110001 <
b1111 =
b11111 >
b0000000 ?
b1110001 @
b1111 A
b11111 B
b0000000 C
b1110001 D
b1111 E
b11111 F
b0000000 G
b1110001 H
b1111 I
b11111 J
b0000000 K
b1110001 L
b1111 M
b11111 N
b0000000 O
b1110001 P
b1111 Q
b11 R
1S
0T
b11011101010100000010 U
b00000000 V
b00000000 W
b10000000 X
b10000000 Y
b10000000 Z
b10000000 [
b00000000 \
b00000000 ]
b10000000 ^
b10000000 _
0`
0a
0b
b1010101101010110 c
b000111110100 d
0e
0f
0g
b11111 h
b00000110 i
b011 j
b11111111 k
b01101111 l
1m
b1101011111101101 n
b0010011110011111 o
b0010111111111011 p
b0111100101101101 q
b1111110101000101 r
b1101111101110001 s
b1110111101111100 t
#2
0S
#3
b00000000 $
b00000000 &
0(
b1011001110010100110111000110011111100000 )
1+
b0000 /
b000 0
b00000001 1
b00000 2
b0111111 3
b0111111 4
b0000 5
b11001 :
b1010011 ;
b1100111 <
b1001 =
b11000 >
b1101110 ?
b1111111 @
b1000 A
b01101 B
b1011110 C
b1011110 D
b1101 E
b01010 F
b1110111 G
b1110111 H
b1010 I
b01110 J
b1111001 K
b1111001 L
b1110 M
b10110 N
b1010000 O
b1111101 P
b0110 Q
b00 R
1S
1T
b00000000000000000000 U
b11111111 V
b11111111 W
b11010000 X
b11111001 Y
b11110111 Z
b11011110 [
b01101110 \
b01010011 ]
b10111111 _
b1111111111111111 c
b110100000110 d
1e
b00000 h
#4
0S
#5
1S
b111101101100 d
0e
#6
0S
#7
1S
#8
0S
#9
1S
#10
0S
#11
1S
#12
0S
#13
1S
#14
0S
#15
1S
#16
0S
#17
1S
#18
0S
#19
1S
#20
0S
#21
1S
#22
0S
#23
1S
#24
0S
#25
1S
#26
0S
#27
1S
#28
0S
#29
1S
#30
0S
#31
1S
#32
0S
#33
1S
#34
0S
#35
1S
#36
0S
#37
1S
#38
0S
#39
1S
#40
0S
#41
1S
#42
0S
#43
1S
#44
0S
#45
1S
#46
0S
#47
1S
#48
0S
#49
1S
#50
0S
#51
1S
#52
0S
#53
1S
#54
0S
#55
1S
#56
0S
#57
1S
#58
0S
#59
1S
#60
0S
#61
1S
#62
0S
#63
1S
#64
0S
#65
1S
#66
0S
#67
1S
#68
0S
#69
1S
#70
0S
#71
1S
#72
0S
#73
1S
#74
0S
#75
1S
#76
0S
#77
1S
#78
0S
#79
1S
#80
0S
#81
1S
#82
0S
#83
1S
#84
0S
#85
1S
#86
0S
#87
1S
#88
0S
#89
1S
#90
0S
#91
1S
#92
0S
#93
1S
#94
0S
#95
1S
#96
0S
#97
1S
#98
0S
#99
1S
#100
0S
#101
1S
#102
0S
#103
1S
#104
0S
#105
1S
#106
0S
#107
1S
#108
0S
#109
1S
#110
0S
#111
1S
#112
0S
#113
1S
#114
0S
#115
1S
#116
0S
#117
1S
#118
0S
#119
1S
#120
0S
#121
1S
#122
0S
#123
1S
#124
0S
#125
1S
#126
0S
#127
1S
#128
0S
#129
1S
#130
0S
#131
1S
#132
0S
#133
1S
#134
0S
#135
1S
#136
0S
#137
1S
#138
0S
#139
1S
#140
0S
#141
1S
#142
0S
#143
1S
#144
0S
#145
1S
#146
0S
#147
1S
#148
0S
#149
1S
#150
0S
#151
1S
#152
0S
#153
1S
#154
0S
#155
1S
#156
0S
#157
1S
#158
0S
#159
1S
#160
0S
#161
1S
#162
0S
#163
1S
#164
0S
#165
1S
#166
0S
#167
1S
#168
0S
#169
1S
#170
0S
#171
1S
#172
0S
#173
1S
#174
0S
#175
1S
#176
0S
#177
1S
#178
0S
#179
1S
#180
0S
#181
1S
#182
0S
#183
1S
#184
0S
#185
1S
#186
0S
#187
1S
#188
0S
#189
1S
#190
0S
#191
1S
#192
0S
#193
1S
#194
0S
#195
1S
#196
0S
#197
1S
#198
0S
#199
1S
#200
0S
#201
1S
#202
0S
#203
1S
#204
0S
#205
0T
#206
b00000001 $
b00000001 &
0+
b00000010 1
1S
#207
0S
#208
b00000010 $
b00000010 &
b00000011 1
1S
b001110111101 d
#209
0S
#210
b00000011 $
b00000011 &
b00000100 1
1S
b101011100111 d
#211
0S
#212
b00000100 $
b00000100 &
b00000101 1
1S
b001011100000 d
#213
0S
#214
b00000101 $
b00000101 &
b00000110 1
1S
b101010110001 d
#215
0S
#216
b00000110 $
1%
b00000110 &
b00000111 1
1S
b011010010110 d
#217
0S
#218
1#
b00000000 $
0%
b00000111 &
b00001000 1
1S
b01111111 V
b0111111111111111 c
b001000111111 d
1e
#219
0S
#220
b00000001 $
b00001000 &
b00001001 1
1S
b001011000001 d
0e
#221
0S
#222
b00000010 $
b00001001 &
b00001010 1
1S
b001001110111 d
1e
#223
0S
#224
b00000011 $
b00001010 &
b00001011 1
1S
b001101011101 d
#225
0S
#226
b00000100 $
b00001011 &
b00001100 1
1S
b001111000011 d
0e
#227
0S
#228
b00000101 $
b00001100 &
b00001101 1
1S
b001111100001 d
#229
0S
#230
b00000110 $
1%
b00001101 &
b00001110 1
1S
b001100010010 d
#231
0S
#232
0#
b00000000 $
0%
b00001110 &
b00001111 1
1S
b110001111001 d
1e
#233
0S
#234
b00000001 $
b00001111 &
b00010000 1
1S
b110110101010 d
#235
0S
#236
b00000010 $
b00010000 &
b00010001 1
1S
b100011110010 d
0e
#237
0S
#238
b00000011 $
b00010001 &
b00010010 1
1S
b001000101000 d
1e
#239
0S
#240
b00000100 $
b00010010 &
b00010011 1
1S
b101101000010 d
#241
0S
#242
b00000101 $
b00010011 &
b00010100 1
1S
b010011011111 d
0e
#243
0S
#244
b00000110 $
1%
b00010100 &
b00010101 1
1S
b010111011110 d
#245
0S
#246
1#
b00000000 $
0%
b00010101 &
b00010110 1
1S
b00111111 V
b0011111111111111 c
b110001100010 d
1e
#247
0S
#248
b00000001 $
b00010110 &
b00010111 1
1S
b110111111010 d
#249
0S
#250
b00000010 $
b00010111 &
b00011000 1
1S
b001000010110 d
0e
#251
0S
#252
b00000011 $
b00011000 &
b00011001 1
1S
b010001101110 d
#253
0S
#254
b00000100 $
b00011001 &
b00011010 1
1S
b110111010100 d
1e
#255
0S
#256
b00000101 $
b00011010 &
b00011011 1
1S
b000001110110 d
#257
0S
#258
b00000110 $
1%
b00011011 &
b00011100 1
1S
b011101100010 d
0e
#259
0S
#260
0#
b00000000 $
0%
b00011100 &
b00011101 1
1S
b010000110010 d
#261
0S
#262
b00000001 $
b00011101 &
b00011110 1
1S
b001101111000 d
#263
0S
#264
b00000010 $
b00011110 &
b00011111 1
1S
b110101000111 d
1e
#265
0S
#266
b00000011 $
b00011111 &
b00100000 1
1S
b110010110010 d
0e
#267
0S
#268
b00000100 $
b00100000 &
b00100001 1
1S
b110011000001 d
1e
#269
0S
#270
b00000101 $
b00100001 &
b00100010 1
1S
b100001001001 d
0e
#271
0S
#272
b00000110 $
1%
b00100010 &
b00100011 1
1S
b011111110111 d
#273
0S
#274
1#
b00000000 $
0%
b00100011 &
b00100100 1
1S
b00011111 V
b0001111111111111 c
b000011111110 d
1e
#275
0S
#276
b00000001 $
b00100100 &
b00100101 1
1S
b101101100000 d
#277
0S
#278
b00000010 $
b00100101 &
b00100110 1
1S
b111100011000 d
0e
#279
0S
#280
b00000011 $
b00100110 &
b00100111 1
1S
b101011100100 d
#281
0S
#282
b00000100 $
b00100111 &
b00101000 1
1S
b010010011110 d
#283
0S
#284
b00000101 $
b00101000 &
b00101001 1
1S
b110110101110 d
#285
0S
#286
b00000110 $
1%
b00101001 &
b00101010 1
1S
b101100110110 d
1e
#287
0S
#288
0#
b00000000 $
0%
b00101010 &
b00101011 1
1S
b100001011100 d
#289
0S
#290
b00000001 $
b00101011 &
b00101100 1
1S
b010111001111 d
0e
#291
0S
#292
b00000010 $
b00101100 &
b00101101 1
1S
b100001110000 d
#293
0S
#294
b00000011 $
b00101101 &
b00101110 1
1S
b011100100100 d
1e
#295
0S
#296
b00000100 $
b00101110 &
b00101111 1
1S
b111110100010 d
#297
0S
#298
b00000101 $
b00101111 &
b00110000 1
1S
b011010011000 d
#299
0S
#300
b00000110 $
1%
b00110000 &
b00110001 1
1S
b100001000000 d
0e
#301
0S
#302
1#
b00000000 $
0%
b00110001 &
b00110010 1
1S
b00001111 V
b0000111111111111 c
b001011111001 d
1e
#303
0S
#304
b00000001 $
b00110010 &
b00110011 1
1S
b011000011100 d
#305
0S
#306
b00000010 $
b00110011 &
b00110100 1
1S
b100010001100 d
0e
#307
0S
#308
b00000011 $
b00110100 &
b00110101 1
1S
b101100111110 d
#309
0S
#310
b00000100 $
b00110101 &
b00110110 1
1S
b010101000111 d
#311
0S
#312
b00000101 $
b00110110 &
b00110111 1
1S
b010100001100 d
#313
0S
#314
b00000110 $
1%
b00110111 &
b00111000 1
1S
b000010000110 d
1e
#315
0S
#316
0#
b00000000 $
0%
b00111000 &
b00111001 1
1S
b001110111001 d
#317
0S
#318
b00000001 $
b00111001 &
b00111010 1
1S
b110101000111 d
#319
0S
#320
b00000010 $
b00111010 &
b00111011 1
1S
b100111100100 d
0e
#321
0S
#322
b00000011 $
b00111011 &
b00111100 1
1S
b000000111110 d
1e
#323
0S
#324
b00000100 $
b00111100 &
b00111101 1
1S
b101100000111 d
0e
#325
0S
#326
b00000101 $
b00111101 &
b00111110 1
1S
b001011011110 d
1e
#327
0S
#328
b00000110 $
1%
b00111110 &
b00111111 1
1S
b100100101110 d
0e
#329
0S
#330
1#
b00000000 $
0%
b00111111 &
b01000000 1
1S
b00000111 V
b0000011111111111 c
b011011100010 d
#331
0S
#332
b00000001 $
b01000000 &
b01000001 1
1S
b111110010011 d
#333
0S
#334
b00000010 $
b01000001 &
b01000010 1
1S
b110001010000 d
#335
0S
#336
b00000011 $
b01000010 &
b01000011 1
1S
b010000011100 d
#337
0S
#338
b00000100 $
b01000011 &
b01000100 1
1S
b011011000100 d
1e
#339
0S
#340
b00000101 $
b01000100 &
b01000101 1
1S
b010100000110 d
0e
#341
0S
#342
b00000110 $
1%
b01000101 &
b01000110 1
1S
b110100101011 d
1e
#343
0S
#344
0#
b00000000 $
0%
b01000110 &
b01000111 1
1S
b001010001010 d
0e
#345
0S
#346
b00000001 $
b01000111 &
b01001000 1
1S
b110000011000 d
#347
0S
#348
b00000010 $
b01001000 &
b01001001 1
1S
b010001110100 d
1e
#349
0S
#350
b00000011 $
b01001001 &
b01001010 1
1S
b111110100011 d
0e
#351
0S
#352
b00000100 $
b01001010 &
b01001011 1
1S
b000000001101 d
1e
#353
0S
#354
b00000101 $
b01001011 &
b01001100 1
1S
b110000000100 d
#355
0S
#356
b00000110 $
1%
b01001100 &
b01001101 1
1S
b001011011110 d
#357
0S
#358
1#
b00000000 $
0%
b01001101 &
b01001110 1
1S
b00000011 V
b0000001111111111 c
b100001110001 d
#359
0S
#360
b00000001 $
b01001110 &
b01001111 1
1S
b111001110001 d
#361
0S
#362
b00000010 $
b01001111 &
b01010000 1
1S
b011100000111 d
0e
#363
0S
#364
b00000011 $
b01010000 &
b01010001 1
1S
b000110101011 d
#365
0S
#366
b00000100 $
b01010001 &
b01010010 1
1S
b001101110100 d
#367
0S
#368
b00000101 $
b01010010 &
b01010011 1
1S
b101100010010 d
1e
#369
0S
#370
b00000110 $
1%
b01010011 &
b01010100 1
1S
b010011010010 d
#371
0S
#372
0#
b00000000 $
0%
b01010100 &
b01010101 1
1S
b110101001010 d
0e
#373
0S
#374
b00000001 $
b01010101 &
b01010110 1
1S
b101111111010 d
1e
#375
0S
#376
b00000010 $
b01010110 &
b01010111 1
1S
b011001010011 d
0e
#377
0S
#378
b00000011 $
b01010111 &
b01011000 1
1S
b111011010011 d
#379
0S
#380
b00000100 $
b01011000 &
b01011001 1
1S
b100100111011 d
1e
#381
0S
#382
b00000101 $
b01011001 &
b01011010 1
1S
b101001110111 d
0e
#383
0S
#384
b00000110 $
1%
b01011010 &
b01011011 1
1S
b101001111010 d
1e
#385
0S
#386
1#
b00000000 $
0%
b01011011 &
b01011100 1
1S
b00000001 V
b0000000111111111 c
b001010100011 d
#387
0S
#388
b00000001 $
b01011100 &
b01011101 1
1S
b111111110011 d
0e
#389
0S
#390
b00000010 $
b01011101 &
b01011110 1
1S
b111011111001 d
1e
#391
0S
#392
b00000011 $
b01011110 &
b01011111 1
1S
b101010001001 d
#393
0S
#394
b00000100 $
b01011111 &
b01100000 1
1S
b111101111110 d
0e
#395
0S
#396
b00000101 $
b01100000 &
b01100001 1
1S
b100001100110 d
1e
#397
0S
#398
b00000110 $
1%
b01100001 &
b01100010 1
1S
b011010110101 d
#399
0S
#400
0#
b00000000 $
0%
b01100010 &
b01100011 1
1S
b100010100110 d
#401
0S
#402
b00000001 $
b01100011 &
b01100100 1
1S
b100101110110 d
#403
0S
#404
b00000010 $
b01100100 &
b01100101 1
1S
b100111011011 d
0e
#405
0S
#406
b00000011 $
b01100101 &
b01100110 1
1S
b110000101100 d
1e
#407
0S
#408
b00000100 $
b01100110 &
b01100111 1
1S
b111101101000 d
#409
0S
#410
b00000101 $
b01100111 &
b01101000 1
1S
b001001011111 d
#411
0S
#412
b00000110 $
1%
b01101000 &
b01101001 1
1S
b011110111001 d
0e
#413
0S
#414
1#
b00000000 $
0%
b01101001 &
b01101010 1
1S
b00000000 V
b0000000011111111 c
b101000011000 d
#415
0S
#416
b00000001 $
b01101010 &
b01101011 1
1S
b111001011001 d
1e
#417
0S
#418
b00000010 $
b01101011 &
b01101100 1
1S
b010111010100 d
0e
#419
0S
#420
b00000011 $
b01101100 &
b01101101 1
1S
b110000100110 d
1e
#421
0S
#422
b00000100 $
b01101101 &
b01101110 1
1S
b110010100110 d
0e
#423
0S
#424
b00000101 $
b01101110 &
b01101111 1
1S
b011011000100 d
1e
#425
0S
#426
b00000110 $
1%
b01101111 &
b01110000 1
1S
b001011111100 d
#427
0S
#428
0#
b00000000 $
0%
b01110000 &
b01110001 1
1S
b101011010001 d
0e
#429
0S
#430
b00000001 $
b01110001 &
b01110010 1
1S
b011110010100 d
#431
0S
#432
b00000010 $
b01110010 &
b01110011 1
1S
b101010110000 d
1e
#433
0S
#434
b00000011 $
b01110011 &
b01110100 1
1S
b111110100011 d
0e
#435
0S
#436
b00000100 $
b01110100 &
b01110101 1
1S
b100010010110 d
1e
#437
0S
#438
b00000101 $
b01110101 &
b01110110 1
1S
b101100011011 d
#439
0S
#440
b00000110 $
1%
b01110110 &
b01110111 1
1S
b011001110101 d
#441
0S
#442
1#
b00000000 $
0%
b01110111 &
b01111000 1
1S
b01111111 W
b0000000001111111 c
b100100011010 d
#443
0S
#444
b00000001 $
b01111000 &
b01111001 1
1S
b100000000011 d
#445
0S
#446
b00000010 $
b01111001 &
b01111010 1
1S
b110111001110 d
0e
#447
0S
#448
b00000011 $
b01111010 &
b01111011 1
1S
b101100100010 d
1e
#449
0S
#450
b00000100 $
b01111011 &
b01111100 1
1S
b101100001110 d
0e
#451
0S
#452
b00000101 $
b01111100 &
b01111101 1
1S
b100010001000 d
1e
#453
0S
#454
b00000110 $
1%
b01111101 &
b01111110 1
1S
b001001101011 d
0e
#455
0S
#456
0#
b00000000 $
0%
b01111110 &
b01111111 1
1S
b011000111111 d
#457
0S
#458
b00000001 $
b01111111 &
b10000000 1
1S
b101000111110 d
1e
#459
0S
#460
b00000010 $
b10000000 &
b10000001 1
1S
b011101000010 d
#461
0S
#462
b00000011 $
b10000001 &
b10000010 1
1S
b000110101101 d
0e
#463
0S
#464
b00000100 $
b10000010 &
b10000011 1
1S
b111011111011 d
#465
0S
#466
b00000101 $
b10000011 &
b10000100 1
1S
b010110100000 d
#467
0S
#468
b00000110 $
1%
b10000100 &
b10000101 1
1S
b110110100001 d
#469
0S
#470
1#
b00000000 $
0%
b10000101 &
b10000110 1
1S
b00111111 W
b0000000000111111 c
b111101011111 d
#471
0S
#472
b00000001 $
b10000110 &
b10000111 1
1S
b110101111111 d
#473
0S
#474
b00000010 $
b10000111 &
b10001000 1
1S
b110001101101 d
1e
#475
0S
#476
b00000011 $
b10001000 &
b10001001 1
1S
b000000100000 d
#477
0S
#478
b00000100 $
b10001001 &
b10001010 1
1S
b001011010110 d
0e
#479
0S
#480
b00000101 $
b10001010 &
b10001011 1
1S
b000011001101 d
1e
#481
0S
#482
b00000110 $
1%
b10001011 &
b10001100 1
1S
b110010001001 d
#483
0S
#484
0#
b00000000 $
0%
b10001100 &
b10001101 1
1S
b001110111011 d
0e
#485
0S
#486
b00000001 $
b10001101 &
b10001110 1
1S
b010000010000 d
#487
0S
#488
b00000010 $
b10001110 &
b10001111 1
1S
b111001000101 d
#489
0S
#490
b00000011 $
b10001111 &
b10010000 1
1S
b111011100111 d
1e
#491
0S
#492
b00000100 $
b10010000 &
b10010001 1
1S
b111111001100 d
0e
#493
0S
#494
b00000101 $
b10010001 &
b10010010 1
1S
b000010011010 d
#495
0S
#496
b00000110 $
1%
b10010010 &
b10010011 1
1S
b100100110111 d
1e
#497
0S
#498
1#
b00000000 $
0%
b10010011 &
b10010100 1
1S
b00011111 W
b0000000000011111 c
b110001100110 d
0e
#499
0S
#500
b00000001 $
b10010100 &
b10010101 1
1S
b111111011000 d
#501
0S
#502
b00000010 $
b10010101 &
b10010110 1
1S
b000001000101 d
1e
#503
0S
#504
b00000011 $
b10010110 &
b10010111 1
1S
b001111110100 d
#505
0S
#506
b00000100 $
b10010111 &
b10011000 1
1S
b011011111111 d
0e
#507
0S
#508
b00000101 $
b10011000 &
b10011001 1
1S
b101001110101 d
1e
#509
0S
#510
b00000110 $
1%
b10011001 &
b10011010 1
1S
b100111010001 d
0e
#511
0S
#512
0#
b00000000 $
0%
b10011010 &
b10011011 1
1S
b011000010101 d
1e
#513
0S
#514
b00000001 $
b10011011 &
b10011100 1
1S
b111000100111 d
#515
0S
#516
b00000010 $
b10011100 &
b10011101 1
1S
b000001110001 d
0e
#517
0S
#518
b00000011 $
b10011101 &
b10011110 1
1S
b111000010111 d
1e
#519
0S
#520
b00000100 $
b10011110 &
b10011111 1
1S
b111010001111 d
0e
#521
0S
#522
b00000101 $
b10011111 &
b10100000 1
1S
b000010100000 d
#523
0S
#524
b00000110 $
1%
b10100000 &
b10100001 1
1S
b101001000100 d
#525
0S
#526
1#
b00000000 $
0%
b10100001 &
b10100010 1
1S
b00001111 W
b0000000000001111 c
b111111101011 d
#527
0S
#528
b00000001 $
b10100010 &
b10100011 1
1S
b010000011011 d
1e
#529
0S
#530
b00000010 $
b10100011 &
b10100100 1
1S
b010110100100 d
#531
0S
#532
b00000011 $
b10100100 &
b10100101 1
1S
b100110101101 d
#533
0S
#534
b00000100 $
b10100101 &
b10100110 1
1S
b001001010100 d
0e
#535
0S
#536
b00000101 $
b10100110 &
b10100111 1
1S
b001010011111 d
1e
#537
0S
#538
b00000110 $
1%
b10100111 &
b10101000 1
1S
b001010011100 d
#539
0S
#540
0#
b00000000 $
0%
b10101000 &
b10101001 1
1S
b000010010010 d
#541
0S
#542
b00000001 $
b10101001 &
b10101010 1
1S
b000110000111 d
#543
0S
#544
b00000010 $
b10101010 &
b10101011 1
1S
b001111111011 d
#545
0S
#546
b00000011 $
b10101011 &
b10101100 1
1S
b001010010010 d
0e
#547
0S
#548
b00000100 $
b10101100 &
b10101101 1
1S
b110110000000 d
#549
0S
#550
b00000101 $
b10101101 &
b10101110 1
1S
b101111111011 d
#551
0S
#552
b00000110 $
1%
b10101110 &
b10101111 1
1S
b011010000000 d
1e
#553
0S
#554
1#
b00000000 $
0%
b10101111 &
b10110000 1
1S
b00000111 W
b0000000000000111 c
b000010111100 d
#555
0S
#556
b00000001 $
b10110000 &
b10110001 1
1S
b100001001000 d
#557
0S
#558
b00000010 $
b10110001 &
b10110010 1
1S
b111110100001 d
#559
0S
#560
b00000011 $
b10110010 &
b10110011 1
1S
b110011000100 d
#561
0S
#562
b00000100 $
b10110011 &
b10110100 1
1S
b001001101001 d
#563
0S
#564
b00000101 $
b10110100 &
b10110101 1
1S
b011011100010 d
0e
#565
0S
#566
b00000110 $
1%
b10110101 &
b10110110 1
1S
b010001001001 d
#567
0S
#568
0#
b00000000 $
0%
b10110110 &
b10110111 1
1S
b001100111111 d
#569
0S
#570
b00000001 $
b10110111 &
b10111000 1
1S
b010110000010 d
#571
0S
#572
b00000010 $
b10111000 &
b10111001 1
1S
b100010101111 d
1e
#573
0S
#574
b00000011 $
b10111001 &
b10111010 1
1S
b111111101100 d
#575
0S
#576
b00000100 $
b10111010 &
b10111011 1
1S
b100011111111 d
#577
0S
#578
b00000101 $
b10111011 &
b10111100 1
1S
b111011100111 d
#579
0S
#580
b00000110 $
1%
b10111100 &
b10111101 1
1S
b001010101011 d
0e
#581
0S
#582
1#
b00000000 $
0%
b10111101 &
b10111110 1
1S
b00000011 W
b0000000000000011 c
b101100001000 d
#583
0S
#584
b00000001 $
b10111110 &
b10111111 1
1S
b111000001001 d
1e
#585
0S
